\relax 
\catcode`"\active
\catcode`-\active
\reset@newl@bel
\select@language{czech}
\@writefile{toc}{\select@language{czech}}
\@writefile{lof}{\select@language{czech}}
\@writefile{lot}{\select@language{czech}}
